1.611	0.82291	0.46938	0.55173	0.14168	0.53812	0.40416	0.53812	0.41216	0.27671	0.27186	0.40416	0.80977	0.27671	0.62151	0.46761	0.61461	0.41216	0.42546	0.40416	0.33544	0.48082	0.2081	0.19945	0.80219	0	0.27186	0.60753	0.40416	0.056272	0.19945	0.39638	0.34893	0.34052	0.48868	0.080059	0.67745	0.21698	0.28034	0.74719	0.69951	0.34052	0.61413	0.42546	0.48868	0.42546	0.40654	0.41719	0.27186	0.62151	0.54309	0.48696	0.27186	0.27186	0.27671	0.13511	0.05953	0.34052	0.19945	0.2081	0.46938	0.35756	0.28905	0.48868	0.35756	0.34353	0.47523	0.20505	0.34353	0.14168	0.41216	0.41216	0.28034	0.14168	0.48307	0.47523	0.49677	0.46938	0.7611	1.1078
2.6482	1.1048	0.62192	0.33544	0.26002	0.18804	0.12387	0.065136	0.27186	0.62151	0.26813	0.34353	0.41216	0.19945	0.46761	0.27186	0.26002	0.27186	0.34052	0.34052	0.54309	0.61413	0.61461	0.41216	0.46938	0.26361	0.19945	0.74719	0.40654	0.41719	0.33235	0.48082	0.48082	0.32758	0.60753	0.28034	0.46761	0.41719	0.33235	0.32758	0.40917	0.60753	0.19945	0.40416	0.26813	0.27671	0.13511	0.40416	0.61413	0.34052	0.19945	-0.14697	0.19945	0.33235	0.27671	0.60753	-0.27762	0.27671	0.14417	0.41719	0.27671	0.34353	0.21698	0.28551	0.28905	0.53812	0.078138	0.0012507	0.27186	0.34893	0.34353	0.40654	0.13266	0.46761	0.53089	0.39884	0.41446	0.46207	0.62913	1.1503
2.2896	0.53812	0.40654	0.40416	0.41719	0.34353	0.39884	0.40416	0.40416	0.61461	0.34353	0.40416	0.27186	0.61461	0.2081	-0.072476	0.41216	0.20505	0.26002	0.19643	0.47523	0.19945	0.27186	0.40416	0.40416	0.27186	0.2081	0.46761	0.54426	0.53089	0.40416	0.48082	0.41216	0.27671	0.13266	0.46023	0.46938	0.48082	0.34052	0.21272	0.26813	0.34052	0.27671	0.2081	0.41216	0.27671	0.33544	0.46023	0.28942	0.33235	0.34496	0.12387	0.2081	0.21272	0.068722	-0.13712	0.40416	0.12387	0.40917	0.070596	0.13511	0.49677	0.068722	0.34353	0.28551	0.20505	0.074223	0.34353	0.41216	0.4204	0.62913	0.53812	0.34353	0.28034	0.60084	0.60084	0.49677	0.34893	0.55943	0.61521
2.6482	0.74719	0.53812	0.47523	0.27186	0.2081	0.46761	0.33544	0.46761	0.27186	0.46761	0.48868	0.33235	0.2081	0.28034	0.33544	0.60753	0.18804	0.41719	0.53812	0.40654	0.40416	0.27186	0.42546	0.40416	0.40416	0.19103	-0.0080122	0.21698	0.19643	0.19945	0.33544	0.14417	0.26361	0.61413	0.41719	0.33544	0.13266	0.75535	0.39884	0.82639	0.27186	0.34052	0.61413	0.34052	0.33235	0.54309	0.40917	0.48082	0.19945	0.13511	0.27671	0.26361	0.55063	0.41719	0.2081	0.48082	0.40917	0.55173	0.34893	0.41446	0.42546	0.068722	0.55841	0.28034	0.21698	0.33544	0.28034	0.14168	0.34052	0.34893	0.27671	0.35184	0.61461	0.46938	0.60084	0.53812	0.35184	0.7611	1.0268
2.4292	0.75403	0.96472	0.62192	0.2081	0.1843	0.41719	0.12884	0.34052	0.33544	0.26002	0.53089	0.55173	0.46761	0.40416	0.05953	0.67731	0.27671	0.27186	0.26361	0.40416	0.34052	0.32758	0.46023	0.39884	-0.0080122	0.0012507	0.27186	0.54426	0.55173	0.39638	0.33544	0.46761	0.34052	0.47523	0.41216	0.2081	0.33544	0.27186	0.27186	0.48082	0.62151	0.34052	0.48082	0.40416	0.48082	0.67745	0.34052	0.41719	0.55841	0.55173	0.27186	0.47319	0.48082	0.19945	0.33235	0.26813	0.27671	0.54426	0.34052	0.078138	0.34893	0.34893	0.13266	0.14168	0.068722	0.61461	-0.06281	0.27186	0.47523	0.2081	0.95852	0.40416	0.46761	0.41446	0.48307	0.39884	0.40654	0.62913	0.8316
2.5108	0.62946	0.74719	0.34353	0.40416	0.47523	0.12038	0.34353	0.26361	0.41719	0.33544	0.27186	0.26002	0.46938	0.27186	0.41216	0.13511	0.33235	0.068722	0.41216	0.34052	0.33235	0.25202	0.60753	0.46761	0.39638	0.065136	0.34353	0.26361	0.34353	0.68444	0.53089	0.61413	0.46761	0.46207	0.34052	0.33544	0.48082	-0.0037467	0.74059	0.48696	0.32758	0.55063	0.32758	0.12387	0.40416	0.47319	0.33235	0.40416	0.070596	0.54309	0.27186	0.27186	0.54426	0.33235	0.54426	0.68444	0.19945	0.19945	0.55063	0.40654	0.12884	0.2081	0.21698	0.28034	0.28034	0.41216	0.48082	0.12387	0.54426	0.27186	0.27186	0.46207	0.19643	0.47523	0.065136	0.14168	0.28034	0.75403	1.3197
2.8194	0.81622	0.47523	0.47523	0.21698	0.46938	0.34353	0.67062	0.54426	0.34052	0.46761	0.26361	0.40416	0.33544	0.60753	0.48082	0.53812	0.61461	0.61413	0.46023	0.26813	0.39884	0.27186	0.53089	-0.072476	0.46761	0.12387	0.33544	0.54426	0.46761	0.12387	0.95852	0.27186	0.41216	0.61413	-0.0080122	0.46761	0.0012507	0.05953	0.48696	0.60699	0.26813	0.40917	0.32441	-0.072476	0.40416	0.41719	0.27671	0.54426	0.54426	0.61413	0.39638	0.61413	0.14417	0.40416	0.62151	0.48082	0.34052	0.47131	0.14417	0.48082	0.34353	0.2081	0.40416	0.2081	0.26002	0.40654	0.27186	0.40416	0.2081	0.13266	0.55943	0.20505	0.27186	0.33544	0.40654	0.33544	0.19643	0.62192	0.8316
2.7073	0.96193	0.60084	0.54558	0.27186	0.55173	0.18804	0.55173	0.67745	0.60084	0.40654	0.67731	0.27186	0.12038	0.34353	0.62151	0.40416	0.40416	0.27186	0.60753	0.19945	0.12387	0.40416	0.594	0.27186	0.33544	0.26813	0.54426	0.61461	0.27186	0.0012507	0.26361	0.80977	0.40416	0.39638	0.26361	0.14417	0.32758	0.67745	0.74719	0.26813	0.48082	0.67745	0.27671	0.40917	0.40917	0.33235	0.41719	0.89591	0.12629	0.61413	0.19945	0.34893	0.54426	0.26813	0.48082	0.2081	0.25979	0.2081	0.26813	0.4204	0.28034	0.2081	0.41216	0.34353	0.068722	0.21698	0.47523	0.40416	0.074223	0.40654	0.67731	0.12387	0.41216	0.60753	0.28034	0.61461	0.61413	0.80977	0.81622
2.6464	0.97492	0.67731	0.61461	0.40416	0.53812	0.54426	0.05953	0.34052	0.46761	0.34353	0.54426	0.32758	0.33544	0.74719	0.39638	0.67745	0.32758	-0.014366	0.6707	0.46023	0.46761	0.12884	-0.072476	0.32758	0.46023	0.33235	0.53703	0.48696	0.26813	0.53089	0.39638	0.40416	0.26361	0.32441	0.61413	0.67745	0.6707	0.67731	0.60699	0.55063	0.60699	0.26813	0.26361	0.34496	0.34052	0.54309	0.60753	0.26813	0.34052	0.46761	0.26361	0.19945	0.34496	0.33235	0.34052	0.40917	0.39638	0.061361	0.34052	0.27186	0.62913	0.42546	0.40416	0.19643	0.2081	0.27186	0.40416	0.40416	0.21698	0.35756	0.27186	0.46761	0.27186	0.74059	0.2081	0.40416	0.40416	0.47523	1.1556
2.4246	0.90031	0.68424	0.53812	0.2081	0.33544	0.40654	0.39884	0.33544	0.53089	0.68444	0.55173	0.52512	0.32758	0.33544	0.40416	0.53089	0.68444	0.74719	-0.017049	0.33544	0.056272	0.54426	0.33544	0.27186	0.40416	0.28034	0.46761	0.52391	0.47319	0.61413	0.34052	0.39638	0.26361	0.39638	0.40917	0.48082	0.53089	0.41216	0.47319	0.26361	0.28942	0.39638	0.48082	0.47319	0.75614	0.53703	0.40917	0.13511	0.39638	0.19945	0.41719	0.81847	0.40416	0.33235	0.05953	0.60699	0.33235	0.27671	0.55173	0.74719	0.28034	0.34052	0.40654	0.2081	0.27186	0.21698	0.27186	0.46761	0.39638	0.28034	0.55173	0.056272	0.34353	0.46761	0.60753	0.74719	0.35184	0.8316	0.75403
2.2923	0.82492	0.61461	0.80977	0.48082	0.26002	0.19238	0.53089	0.40416	0.55173	0.26002	0.53089	0.53089	0.26825	0.26361	0.40416	0.33544	0.594	0.40416	0.26361	0.40416	0.60753	0.61413	0.46023	0.86634	0.27186	0.48868	0.594	0.34893	0.62151	0.27671	0.26361	0.67745	0.33235	0.19945	0.26813	0.54426	0.46023	0.26813	0.40416	0.20374	0.47901	0.26813	0.48696	0.47319	0.19103	0.19945	0.39638	0.11531	0.19945	0.33235	0.26813	0.34496	0.20374	0.2081	0.54309	0.12387	0.26813	0.26361	0.32441	0.27186	0.34893	0.61413	0.18804	0.34893	0.2081	0.68444	0.39138	0.27186	0.19643	0.13511	0.40416	0.05953	0.41216	0.19945	0.55173	0.48868	0.19643	0.8316	0.75403
2.2923	0.82291	0.47523	0.55173	0.73984	0.46761	0.27186	0.32758	0.46023	0.60084	0.12038	0.67745	0.60753	0.14417	0.74719	0.18804	0.19945	0.47523	0.54426	0.54426	0.26002	0.74059	0.74059	0.12387	0.32758	0.068722	0.39638	0.41719	0.19103	0.26813	0.26361	0.33235	0.52391	0.32441	0.26361	0.67745	0.34052	0.60753	0.61413	0.46023	0.61413	0.46023	0.40917	0.070596	0.48082	0.33235	0.6707	0.55063	0.40416	0.40416	0.69204	0.13266	0.39638	0.28058	0.74178	0.55063	0.60699	0.39638	0.2081	0.47319	0.27186	0.48868	0.13266	0.55173	0.05953	0.28034	0.19643	0.54558	0.41216	0.55173	0.40654	0.34353	0.34353	0.13266	0.33544	0.48868	0.48082	0.74719	0.41216	1.0328
2.3661	0.96472	0.60753	0.60084	0.68444	0.60084	0.53089	0.33544	0.60753	0.39638	0.46761	0.48082	0.39884	0.33544	0.54426	0.32758	0.53812	0.19643	0.39638	0.26361	0.53089	0.40416	0.27186	0.25559	0.60753	0.46761	0.6707	0.60753	0.74719	0.26002	0.47319	0.33235	0.32758	0.38884	-0.017049	0.55063	0.53703	0.60069	0.19643	0.46761	0.40917	0.48696	0.34496	0.19945	0.45309	0.39638	0.60699	0.25979	0.60699	0.39638	0.19945	0.12629	0.47901	0.39638	0.39638	0.34052	0.19499	0.55063	0.48082	0.48082	0.27186	0.48082	0.13266	0.34052	0.33235	0.26361	0.33544	0.20505	0.48082	0.41216	0.46761	0.34353	0.13266	0.20374	0.39884	0.33235	0.68444	0.53812	0.46761	0.95578
2.3639	0.68424	0.95578	0.60084	0.67731	0.55173	0.53812	0.34052	0.34052	0.33544	0.40416	0.065136	0.67731	0.53089	0.26002	0.53089	0.34052	0.53703	0.67745	0.40416	0.4658	0.46023	0.594	0.46761	0.25202	0.19945	0.67745	0.48082	0.40917	0.60069	0.19945	0.19945	0.13511	0.48082	0.39638	0.455	0.60753	0.25559	0.60699	0.26813	0.34496	0.60699	0.60699	0.26813	-0.014366	0.54309	0.25559	0.38884	0.33235	0.33235	0.60699	0.60069	0.67745	0.32441	0.40416	0.20374	0.34052	0.61413	0.32441	0.55063	0.68424	0.34052	0.26813	0.46761	0.068722	0.55173	0.61413	0.20374	0.2081	0.12884	0.12884	0.28034	0.33544	0.28034	0.34052	0.47523	0.54426	0.41216	0.87217	0.96472
2.4268	0.74719	0.53204	0.40654	0.68444	0.74719	0.53089	0.82492	0.68444	0.67731	0.39884	0.40654	0.594	0.33544	0.67745	0.60753	0.53089	0.68444	0.53089	0.54426	0.75535	0.45309	0.32758	0.73423	0.46761	0.26002	0.27186	0.18804	0.32758	0.26361	0.33235	0.67062	0.39638	0.53703	0.88142	2.1953	0.26361	0.33235	0.40917	0.19945	0.76304	0.19499	0.76304	0.54309	0.46023	0.81847	0.26813	0.53579	0.55063	0.61413	0.34052	0.67745	0.60699	0.60699	0.26813	0.25979	0.33235	0.34052	0.26813	0.33235	0.41216	0.62151	0.27186	0.2081	0.54426	0.33235	0.54426	0.27186	0.53812	0.60753	0.55063	0.34052	0.34893	0.21698	0.47523	0.27186	0.48868	0.34353	0.89591	0.90933
2.3687	0.82492	0.53812	0.61461	0.40654	0.60084	0.46761	0.60069	0.40654	0.19238	0.67731	0.74059	0.33544	0.25202	0.32343	0.46761	0.74059	0.87217	0.54426	0.40416	0.27186	0.12387	0.40416	0.40416	0.61413	0.54426	0.52391	0.2081	0.39638	0.53703	0.25559	0.67745	0.80355	0.39638	0.95256	0.46023	0.39638	0.33544	0.39638	0.47319	0.6707	1.0945	0.25979	0.47901	0.48082	0.62151	0.74875	0.32441	0.54309	0.55063	0.60699	0.47319	0.31996	0.19499	0.48696	0.4658	0.40917	0.26813	0.47901	0.54426	0.68444	0.13266	0.48082	0.26361	0.40416	0.62151	0.33544	0.068722	0.40416	0.60753	0.27671	0.27671	0.46761	0.13266	-0.0049943	0.40654	0.68444	0.74719	0.69166	0.89378
2.3504	1.2331	0.60084	0.39884	0.60753	0.60753	0.46207	0.32758	0.40416	0.80977	0.26361	0.46023	0.80977	0.46023	0.46207	0.52391	0.68444	0.33544	0.61413	0.32758	0.80977	0.53089	0.12038	0.74059	0.67745	0.33235	0.19945	0.39638	0.33235	0.74059	0.45309	0.47901	0.38884	0.54426	0.25979	0.12629	0.26813	0.67745	0.46023	0.81847	0.40917	0.47319	0.61413	0.53579	0.61413	0.60069	0.39638	0.47319	0.26813	0.061361	0.19945	0.33235	0.38884	0.47319	0.54426	0.53004	0.53703	0.54426	0.6707	0.34052	0.55173	0.34052	0.39884	0.2081	0.40416	0.41216	0.12387	0.20505	0.40654	0.47901	0.27186	0.47523	0.068722	0.41216	0.34353	0.40654	0.55173	0.27186	0.8316	1.1777
3.2071	0.95578	0.73984	0.53089	0.75403	0.39884	0.25573	0.74719	0.67062	0.46761	0.46023	0.46023	0.60753	0.33235	0.74059	0.27186	0.46761	0.12038	0.39638	0.32758	0.39638	0.39884	0.60699	0.40416	0.0012507	0.27671	0.60069	0.40416	0.17988	0.26361	0.53703	0.27186	0.32441	0.67745	0.53703	0.26361	0.46023	0.39638	0.33235	0.31996	0.61413	0.53703	0.54309	0.47131	0.26813	0.53703	0.61413	0.25979	0.26361	0.40664	0.32441	0.40917	0.33235	0.61413	0.55063	0.47319	0.60699	0.13	0.20374	0.47901	0.41719	0.2081	0.26002	0.26813	0.80977	0.53089	0.27186	0.27671	0.33544	0.61413	-0.069698	0.68444	0.33544	0.2081	0.27671	0.46761	0.26002	0.40416	0.89591	0.70674
2.7042	0.67731	0.95578	0.40654	0.73984	0.26002	0.67731	0.54558	0.53812	0.26002	1.0209	0.74059	0.32343	0.46761	0.46761	0.87217	0.53089	0.32343	0.53812	0.61413	0.39884	0.39884	0.13511	0.39638	0.26361	0.050565	0.45309	0.27186	0.39638	0.67745	0.19945	0.26813	0.19499	0.4658	0.48082	0.53089	0.056272	0.54309	0.19945	0.33235	0.55063	0.53703	0.60699	0.26361	0.47319	0.47319	0.19499	0.33235	0.39638	0.39638	0.19945	0.47319	0.39638	0.60699	0.33235	0.33235	0.33235	0.55063	0.47901	0.47131	0.34052	0.26361	0.41719	0.32758	0.26813	0.34893	0.34353	0.41216	0.47523	0.12387	0.2081	0.13266	0.39884	0.60753	0.40416	0.47523	0.28034	0.41216	0.33235	0.97116
2.7619	0.88711	0.80977	0.60084	0.60753	0.46761	0.6707	0.46023	0.32343	0.60753	0.60084	0.68444	0.67731	0.40654	0.33544	0.48082	0.19643	0.33235	0.67062	0.46023	0.48082	0.46023	0.53703	0.27186	0.32441	0.60753	0.33235	0.26361	0.26813	0.26361	0.6707	0.45309	0.81227	0.19945	0.38884	0.26361	0.38884	0.32441	0.33235	0.54426	0.32441	0.33235	0.54309	0.48696	0.61413	0.66419	0.05953	0.74844	0.54309	0.40917	0.25559	0.54309	0.40917	0.53579	0.47319	0.19945	0.40917	0.6707	0.54309	0.60699	0.48082	0.61413	0.54426	0.19945	0.34052	0.26813	0.34052	0.11531	0.27186	0.27186	0.61413	0.54426	0.46023	0.54426	0.46761	0.40654	0.46761	0.67731	0.61461	1.3181
2.6266	0.74719	0.68444	0.54426	0.39884	0.33544	0.74638	0.74719	0.39884	0.54426	0.46761	0.46761	0.39884	0.39884	0.46023	0.39884	0.53089	0.53812	0.46023	0.6707	0.26361	0.39638	0.39884	0.26361	0.74059	0.39638	0.26361	0.67745	0.60069	0.39138	0.39138	0.25169	0.12387	0.6707	0.070596	0.19945	0.52391	0.47319	0.47319	0.40416	0.61413	0.76304	0.33235	0.47319	0.88142	0.47319	0.38884	0.39638	0.32441	0.4658	0.26813	0.82639	0.76304	0.74875	0.47901	0.47131	0.40137	0.60699	0.32441	0.54309	0.60753	0.19643	0.48082	0.46761	0.68444	0.55173	0.27186	0.77018	0.18804	0.13511	0.26361	0.60753	0.40416	0.33544	0.27186	0.26361	0.54426	0.53089	0.42546	0.95852
2.2244	1.0176	0.68424	0.61461	0.46207	0.39884	0.40416	0.95256	0.19643	0.32758	0.53089	0.53089	0.67062	0.46761	0.80355	0.53089	0.54426	0.60753	0.66417	0.39638	0.39138	0.46761	0.52391	0.33235	0.67745	0.6707	0.47131	0.54309	0.67745	0.60069	0.54426	0.3534	0.74059	0.67745	0.25559	0.47319	0.25559	0.40416	0.31996	0.68444	0.39638	0.47319	0.46023	0.38884	0.61413	0.45309	0.38884	0.61413	0.32441	0.60008	0.47901	0.47901	0.39638	0.25979	0.60008	0.33235	0.6707	0.32441	0.39638	0.62117	0.32758	0.61413	0.26361	0.47523	0.80355	0.33235	0.32441	0.48082	0.53703	0.2081	0.54426	0.40917	0.74719	0.47523	0.40416	0.48307	0.55173	0.33544	0.69166	1.0988
2.7629	1.0328	0.59454	0.47523	0.53089	0.33544	0.74719	0.52391	0.19945	0.80355	0.60753	0.46023	0.39884	0.33544	0.26361	0.60753	0.39638	0.67062	0.47523	0.54426	0.33235	0.52391	0.46761	0.40917	0.61461	0.53579	0.61413	0.26361	0.32758	0.26361	0.40917	0.26361	0.52391	1.078	0.32441	0.60069	0.26361	0.52391	0.53703	0.74059	0.47901	0.47319	0.33677	0.54309	0.47319	0.60699	0.46023	0.25979	0.60069	0.67745	0.39638	0.47319	0.60699	0.38884	0.47319	0.33677	0.53579	0.40917	0.74875	0.6707	0.61413	0.54426	0.39638	0.39638	0.54426	0.67745	0.28034	0.40416	0.33544	0.47319	0.40416	0.47319	0.48082	0.27186	0.40416	0.19945	0.46761	0.594	0.68444	0.89378
2.9784	0.73984	0.74638	0.53089	0.46761	0.87217	0.26002	0.67062	0.53089	0.39638	0.60753	0.46938	0.32758	0.32758	0.46023	0.40416	0.32758	0.53089	0.39638	0.32343	0.33544	0.80977	0.46023	0.47319	0.53703	0.60753	0.39138	0.46023	0.60699	0.47319	0.26813	0.46761	0.4658	0.46023	0.61413	0.54426	0.19643	0.25559	0.52391	0.66417	0.60753	0.67802	0.32441	0.32441	0.60699	0.73423	0.27197	0.47319	0.60069	0.60753	0.46624	0.94138	0.60008	0.60008	0.60699	0.53004	0.54309	0.6707	0.32441	0.40917	0.32441	0.32758	0.54426	0.48082	0.19945	0.41216	0.27186	0.48082	0.39638	0.54426	0.48082	0.32758	0.34052	0.18804	0.40416	0.27186	0.39884	0.40416	0.48868	1.1729
2.5606	0.94009	0.67731	0.53089	0.46023	0.52391	0.46207	0.60069	0.33544	0.53089	0.53089	0.53089	0.80355	0.54426	0.33544	0.46207	0.26361	0.53089	0.81847	0.60753	0.67062	0.66417	0.46023	0.67745	0.47319	0.52391	0.33235	0.13511	0.39138	0.81227	0.25559	0.4658	0.47319	0.52391	0.54309	0.53703	0.31996	0.74059	0.39638	0.39638	0.47131	0.47319	0.39638	0.33235	0.60008	0.53004	0.33235	0.55063	0.6707	0.47901	0.53579	0.81989	0.6707	0.6707	0.47131	0.33235	0.32441	0.54309	0.47319	0.47319	0.39638	0.88956	0.55063	0.52391	0.39138	0.26813	0.33235	0.47319	0.19945	0.32758	0.33544	0.27186	0.19945	0.47523	0.13266	0.55173	0.27186	0.46761	0.87217	0.82492
2.9045	0.95578	0.33544	0.80977	0.67745	0.46761	0.46761	0.53089	0.67731	0.60069	0.52391	0.39638	0.46761	0.53089	0.80977	0.74059	0.33235	0.056272	0.39638	0.40654	0.39638	0.53089	0.60753	0.60699	0.53703	0.46023	0.39638	0.32758	0.40416	0.47319	0.33235	0.594	0.26813	0.39638	0.26813	1.1405	0.38884	0.39638	0.76304	0.95256	0.60699	0.54309	0.68505	0.25979	0.80355	0.53004	0.55063	0.38884	0.61413	0.40137	0.88346	0.60699	0.60699	0.74948	0.82639	0.60069	0.47319	0.6707	0.32441	0.34496	0.20374	0.46761	0.19945	0.47901	0.53703	0.67745	0.19945	0.47319	0.54426	0.68444	0.88748	0.67062	0.46761	0.2081	0.25202	0.67731	0.68444	0.40416	0.74719	1.0268
2.5071	0.87824	0.74719	0.61461	0.39884	0.60084	0.39638	0.60753	0.46761	0.32758	0.67745	0.53089	0.32758	0.46761	0.38884	0.45309	0.74059	0.31996	0.46207	0.88142	0.80977	0.38884	0.39884	0.53703	0.32758	0.53089	0.82492	0.6707	0.38415	0.45309	0.60069	0.47319	0.53703	0.80355	0.6707	0.53579	0.53089	0.32441	0.47319	0.54426	0.40137	0.47131	0.60008	0.25979	0.46023	0.60699	0.68505	0.46023	0.25979	0.19103	0.4658	0.47901	0.46384	0.81989	0.54309	0.40137	0.73423	1.0985	0.33677	0.74875	0.47319	0.40416	0.61413	0.33235	0.55063	0.74719	0.33235	0.40416	0.39638	0.55063	0.34052	0.54426	0.6707	0.55063	0.73423	0.60084	0.47523	0.68444	0.34052	0.95578
2.2872	0.87824	1.0121	0.60753	0.53089	0.46761	0.67062	0.53089	0.74059	0.54426	0.38667	0.53089	0.74059	0.53089	0.53703	0.60753	0.39638	0.31583	0.39638	0.54426	0.39138	0.80355	0.33235	0.67745	0.73423	0.60699	0.55063	0.53703	0.80355	0.60753	0.53703	0.25979	0.59409	0.38415	0.33235	0.40917	0.67745	0.25979	0.20374	0.60069	0.25979	0.81989	0.47319	0.54309	0.74059	0.60699	0.32441	0.62117	0.81227	0.60008	0.74178	0.6707	0.54309	0.60699	0.39638	0.60008	0.61413	0.53004	0.47319	0.54309	0.48082	0.46761	0.32758	0.33235	0.33544	0.39638	0.26361	0.39638	0.455	0.40416	0.61461	0.33544	0.62151	0.61413	0.73423	0.55173	0.67062	0.55063	0.61461	0.68444
2.8671	0.94986	0.61461	0.80355	0.73984	0.46207	0.40416	0.80355	0.39138	0.46207	0.67745	0.52391	0.39884	0.53089	0.39638	0.39884	0.66419	0.594	0.38884	0.53703	0.52391	0.60069	0.32758	0.38884	0.26361	0.19945	0.54426	0.39638	0.59409	0.60753	0.60753	0.47319	0.60753	0.48082	0.39638	0.47319	0.79758	0.45309	0.39638	0.53703	0.11769	0.32441	0.54309	0.33677	0.72812	0.33235	0.32881	0.8776	0.81989	0.60699	0.88956	0.25169	0.54309	0.38155	0.60699	0.54309	0.4658	0.54309	0.19499	0.53004	0.74719	0.48082	0.53703	0.54309	0.46761	0.40917	0.46023	0.34496	0.60699	0.48082	0.54309	0.46023	0.54426	0.61413	0.54426	0.60753	0.28034	0.46023	0.62913	0.94986
2.2872	0.74719	0.80355	0.66338	0.53089	0.46207	0.80355	0.25559	0.46761	0.26361	0.38415	0.53089	0.18804	0.39138	0.46023	0.47319	0.33235	0.52391	0.46761	0.31996	0.39884	0.74059	0.39638	0.61461	0.60753	0.51843	0.52391	0.54426	0.39638	0.31996	0.19945	0.39638	0.31996	0.79758	0.39638	0.4658	0.44816	0.66419	0.60008	0.32441	0.32441	0.54309	0.39638	0.4658	0.60699	0.53703	0.4658	0.52873	0.53703	0.33677	0.68505	0.53579	0.60008	0.53579	0.32441	0.25979	0.47131	0.47131	0.75614	0.31671	0.26361	0.54309	0.67745	0.40416	0.40416	0.39638	0.32758	0.33544	0.39884	0.40416	0.39138	0.61461	0.67745	0.48082	0.46761	0.47523	0.61461	0.55173	0.48082	0.96472
2.9045	1.3563	0.86634	0.46207	0.46207	0.74059	0.52391	0.594	0.67731	0.80977	0.60753	0.67062	0.52391	0.39138	0.53089	0.60753	0.60753	0.75535	0.74059	0.18804	0.67062	0.40416	0.53703	0.46023	0.25202	0.12387	0.67745	0.45309	0.60069	0.38415	0.45309	0.60069	0.73423	0.25979	0.46023	0.53703	0.46023	0.47319	0.6707	0.38884	1.1668	0.54309	0.47131	0.75535	0.53579	0.88956	0.38884	0.66419	0.60699	0.54309	0.53579	0.33235	0.40137	0.54309	0.53703	0.54309	0.26813	0.4658	0.47319	0.74948	0.39638	0.61413	0.33235	0.33544	0.54309	0.61413	0.39638	0.76304	0.74719	0.60753	0.73353	0.61413	0.54426	0.46761	0.40416	0.53089	0.41216	0.55173	0.74059	1.0176
2.2896	1.0793	0.80355	0.67062	0.455	0.53089	0.46207	0.39638	0.95852	0.60069	0.32758	0.25559	0.80355	0.79758	0.26361	0.75535	0.25559	0.46207	0.94419	0.52391	0.52391	0.32758	0.39638	0.87464	0.46761	0.53703	0.60069	0.19103	0.81847	0.47319	0.73423	0.46761	0.6707	0.47131	0.60069	0.32758	0.54309	0.25559	0.40435	0.25559	0.60008	0.81989	0.54309	0.47319	0.8776	0.60699	0.74875	0.19499	0.53579	0.74875	0.60699	0.47131	0.60699	0.68505	0.60008	0.47131	0.4658	0.75614	0.47131	0.88346	0.4658	0.60753	0.26813	0.81847	0.54426	0.33235	0.46023	0.60753	0.47319	0.60753	1.0209	0.33235	0.68444	0.53089	0.40416	0.39884	0.60699	0.62151	0.60753	0.89378
2.3461	1.0886	0.94986	0.46207	0.46761	0.594	0.73984	0.594	0.60084	0.80219	0.455	0.53089	0.39638	0.86634	0.46761	0.39138	0.46761	0.79627	0.47319	0.39138	0.46761	0.5874	0.67745	0.46207	0.6707	0.33235	0.39138	0.40137	0.74059	0.32758	0.73423	0.46624	0.53579	0.38884	0.73423	0.60069	0.32441	0.60008	0.54426	0.38884	0.53579	0.32441	0.54309	0.47901	0.40137	0.60008	0.82639	0.40917	0.66419	0.74875	0.60699	0.62117	0.53579	0.60008	0.11769	0.54309	0.46384	0.66419	0.72812	0.60699	0.53703	0.47319	0.25559	0.54426	0.95852	0.54426	0.88748	0.68507	0.46023	0.74719	0.67745	0.54426	0.47319	0.40416	0.41719	0.52391	0.46207	0.94986	0.40416	0.74059
2.3481	1.1056	0.87217	0.60753	0.594	0.5874	0.46207	0.53004	0.52391	0.73353	0.455	0.74059	0.26002	0.80355	0.46761	0.74059	0.66417	0.66338	0.6707	0.60753	0.46023	0.25559	0.31583	0.39638	0.39638	0.53703	0.88956	0.53703	0.40917	0.87561	0.69204	0.33235	0.53703	0.25559	0.60008	0.53703	0.47131	0.60069	0.54309	0.32441	0.60008	0.60699	0.60008	0.60008	0.53579	0.60699	0.38884	0.47131	0.60008	0.74948	0.47131	0.74875	0.53579	0.60699	0.81227	0.53579	0.31671	0.54309	0.74875	0.60699	0.46207	0.67745	0.66419	0.54309	0.39638	0.32758	0.46761	0.55063	0.60069	0.32441	0.61413	0.39638	0.54426	0.33544	0.6707	0.455	0.73353	0.60753	0.60753	1.1056
2.8987	1.3629	0.80219	0.53089	0.74059	0.67062	0.594	0.18804	0.594	0.5874	0.46023	0.94986	0.60753	0.67745	0.45309	0.67062	0.31996	0.46023	0.67745	0.60069	0.67062	0.51716	0.52391	0.32441	0.39138	0.25559	0.55063	0.60699	0.6707	0.32758	0.53703	0.87561	0.81227	0.53703	0.67745	0.53004	0.61413	0.45309	0.4658	0.53703	0.75614	0.66419	0.18284	0.68515	0.25169	0.60008	0.60699	0.60699	0.53579	0.19499	0.73423	0.60008	0.6707	0.60008	0.25169	0.40137	0.52873	0.18647	0.4658	0.82639	0.60753	0.46023	0.61413	0.88142	0.89591	0.46023	0.73423	0.67745	0.60753	0.74719	0.68444	0.32758	0.67745	0.48082	0.67062	0.53089	0.39884	0.80977	0.67745	0.88711
2.6266	1.1503	0.80355	0.73984	0.1843	0.67062	0.72747	0.53089	0.46207	0.74719	0.24426	0.46023	0.52391	0.60753	0.66417	0.53703	0.39638	0.60069	0.73423	0.38884	1.0068	0.60753	0.46761	0.52391	0.46761	0.53579	0.60699	0.32441	0.55173	0.4658	0.61413	0.6707	0.59409	0.81227	0.60699	0.60699	0.38884	0.47131	0.88346	0.60699	0.53579	0.60008	0.32441	0.74308	0.40137	0.47131	0.60686	0.40137	0.60008	0.60008	0.88346	0.54309	0.81363	0.60699	0.72812	0.39382	0.40664	0.53579	0.62117	0.59409	0.61461	0.80355	0.54309	0.67745	0.31996	0.4658	0.53703	0.60699	0.48082	0.39638	0.26813	0.74719	0.32758	0.39638	0.33235	0.67745	0.61461	0.60699	0.74844	1.0209
2.6189	1.2119	0.59454	0.80219	0.73353	0.80355	0.73353	0.60069	0.46023	0.25202	0.67062	0.52391	0.51843	0.87217	0.46023	1.1405	0.66417	0.92894	0.45309	0.46023	0.60753	0.60069	0.32758	0.46023	0.60753	0.26813	0.72812	0.73423	0.60753	0.74059	0.47319	0.39638	0.81847	0.38884	0.25979	0.47319	0.24781	0.45309	0.54309	0.32441	0.60008	0.54309	0.31671	0.40917	0.8776	0.60008	0.95256	0.32441	0.53579	0.74875	0.81989	0.53579	1.5083	0.66417	0.60008	0.38884	0.40137	0.53579	0.60699	0.60008	0.48082	0.67745	0.75614	0.67745	0.47319	0.32441	0.25559	0.88956	0.48082	0.79758	0.62151	0.60753	0.60753	0.54309	0.53089	0.73353	0.74719	0.594	0.82492	0.89378
3.041	1.0793	1.0121	0.66338	0.94986	0.67062	0.80355	0.67062	0.52512	0.80355	0.594	0.455	0.46023	0.73423	0.73423	0.46023	0.67062	0.38415	0.39138	0.67062	0.53089	0.39638	0.60753	0.67731	0.60753	1.0154	0.45309	0.38415	0.44619	0.53703	0.39638	0.17988	0.38415	0.39638	0.33677	0.60077	0.46023	0.53004	0.6707	0.39638	0.53579	1.2295	0.53004	0.60008	0.54309	0.60008	0.60699	0.72812	0.53579	0.53579	0.54309	0.90558	0.31671	0.66419	0.61402	0.60008	0.7424	0.60008	0.40137	0.53703	0.40917	0.6707	0.6707	0.68444	0.95852	0.46761	0.73423	0.6707	0.67745	0.6707	0.75535	0.39638	0.60753	0.67062	0.75535	0.46761	0.80219	0.53703	0.61461	1.4386
2.8201	1.0633	0.46938	0.80977	0.46023	0.594	0.65692	0.39884	0.52391	0.46938	0.594	0.53089	0.5874	0.46023	0.53703	0.86634	0.38884	0.37945	0.31996	0.52391	0.66417	0.594	0.73423	0.12387	0.80355	0.31996	0.45309	0.26361	0.75535	0.45309	0.60753	0.66417	0.6707	0.88956	0.4658	0.73423	0.60069	0.39638	0.60699	0.67745	0.53703	0.81363	0.54309	0.8776	0.6707	0.94684	0.19103	0.94684	0.4658	0.25979	0.60699	0.69221	0.67802	0.54309	0.60008	0.32881	0.73423	0.32441	0.53703	0.54309	0.60069	0.54426	0.32758	0.32758	0.67062	0.53703	0.73423	0.26361	0.39138	0.53703	0.60753	0.46761	0.68444	0.46023	0.26361	0.46761	0.68424	0.61461	0.61461	1.3063
2.7619	1.2119	0.73326	0.80355	0.9344	0.74059	0.87217	0.46023	0.5874	0.455	0.52391	0.53703	0.87217	0.53089	0.66417	0.74719	0.6707	0.73423	0.73423	0.52391	0.46207	0.58104	0.80355	0.60069	0.30845	0.74059	0.52391	0.38884	0.6707	0.66417	0.60753	0.53703	0.60699	0.54309	0.94138	0.67745	0.39638	0.39638	0.40917	0.66419	0.74948	0.61413	0.66419	0.61402	0.4658	0.68505	0.6707	0.32441	0.73423	0.66419	0.61402	1.0985	0.60699	0.81227	0.38155	0.88346	0.60008	0.54309	0.65794	0.66419	0.46761	0.74875	0.32441	0.53703	0.74059	0.53703	0.81847	0.6707	0.73423	0.61413	0.60753	0.46023	0.68444	0.455	0.46023	0.39884	0.46023	0.68444	0.94986	1.3563
2.8767	0.92894	1.0121	0.25202	0.59454	0.65692	0.80355	0.53812	0.67062	0.94986	0.80977	0.86634	0.594	0.80355	0.73423	0.67062	0.46023	0.52391	0.46023	0.60069	0.60753	0.51843	0.39638	0.39638	0.45309	0.60069	0.5874	0.80355	0.60753	0.6707	0.38884	0.74059	0.39638	0.26361	0.74059	0.53703	0.81227	0.60069	0.4658	0.4658	0.8776	0.60008	0.54309	0.60699	0.8776	0.54309	0.40917	1.0985	0.52873	0.38884	0.58721	0.61413	0.45309	0.32441	0.60699	0.53703	0.67831	0.60699	0.88956	0.4658	0.455	0.48082	0.61413	0.88142	0.25559	0.40416	0.74059	0.53089	0.67745	0.26361	0.46761	0.53812	0.94986	0.5874	0.66417	0.18804	0.87217	0.67731	0.60753	1.0268
2.6571	1.2291	1.1556	0.72574	0.65692	0.38667	0.87217	0.53204	0.86437	0.53089	0.594	0.66338	0.46207	0.37945	0.80355	0.80355	0.52391	0.60753	0.74059	0.45309	0.60069	0.53089	0.65071	0.60069	0.74059	0.6707	0.46023	0.60753	0.80355	0.73423	0.6707	0.60069	0.38884	0.73423	0.60069	0.61413	0.67745	0.6707	0.53703	0.53089	0.53004	1.0248	0.59343	0.60008	0.66419	0.66419	0.81847	0.66419	0.6707	0.60008	0.38884	0.53579	0.38884	0.53703	0.66419	0.79758	0.38884	0.6707	0.72812	0.51716	0.66417	0.32758	0.67745	0.80355	0.60699	0.53703	0.46761	0.594	0.53089	0.61461	0.46023	0.66417	0.53703	0.74059	0.67745	0.39884	0.46023	0.53089	0.82492	0.94602
2.9905	1.0793	0.80219	0.80355	0.80355	0.52512	0.52512	0.60069	0.51261	0.65692	0.67062	0.5874	0.71967	0.80355	0.60753	0.594	0.52391	0.53089	0.66417	0.52391	0.53089	0.46023	0.67062	0.52391	0.74059	0.61413	0.38415	0.53089	0.60069	0.60069	0.53703	0.80355	0.26361	0.86634	0.73423	0.60753	0.74059	0.33235	0.6707	0.53703	0.38884	0.73423	0.68505	0.31671	0.59409	0.60008	0.60699	0.60008	0.93876	0.60008	0.53703	0.59409	0.66419	0.6707	0.60008	0.6707	1.2204	0.94684	0.60008	0.4658	0.46761	0.52391	0.53703	0.46023	0.47319	0.93876	0.46761	0.74719	0.455	0.67062	0.60753	0.74719	0.46023	0.67731	0.74059	0.86075	0.60753	0.53703	0.47523	1.1503
2.4064	1.2889	0.80836	0.46207	0.73984	0.94009	0.52512	0.594	0.73353	0.86437	0.594	1.292	0.53089	0.87217	0.52391	0.31583	0.594	0.80355	0.38884	0.74719	0.65071	0.79627	0.39138	0.46207	0.60069	0.80355	1.0209	0.52391	0.73423	0.594	0.74059	0.6707	0.46023	0.47319	0.88142	0.73423	0.79758	0.39138	0.74059	0.53703	0.52391	0.94684	0.4658	0.60699	0.60069	0.53579	0.60008	0.6707	0.51716	0.59409	0.66419	0.60699	0.6707	0.73423	0.88956	0.60008	0.53579	0.60699	0.95256	0.6707	0.81847	0.46023	0.46761	0.39138	0.60069	0.73423	0.88748	0.60699	0.79758	0.73423	0.95256	0.39638	0.95256	0.67062	0.6707	0.67062	0.46207	0.81622	0.80977	1.0111
2.6579	1.2168	1.0583	0.66338	0.72574	0.59454	0.9344	0.73353	0.53089	0.79627	0.87217	0.85883	0.86634	0.58799	0.51843	0.65071	0.66417	0.594	0.46207	0.5874	0.86634	0.67062	0.88748	0.32758	0.594	0.51843	0.68444	0.66417	0.594	0.73423	0.74059	0.52391	0.52391	0.38415	0.67062	0.32758	0.74059	0.67745	0.8776	0.46023	0.81227	0.73423	0.73423	0.66419	0.88346	0.52873	0.73423	0.94684	0.60069	0.66419	0.4658	0.52873	0.88956	0.94684	0.60008	0.88346	0.38884	0.73423	0.60008	0.73423	0.74059	0.74059	0.80355	0.60753	0.81227	0.80355	0.80977	0.594	0.60753	0.46761	0.46023	0.80977	0.74059	0.60069	0.6707	0.80977	0.67745	0.80355	0.74059	1.3063
2.9342	1.1458	1.1408	0.9344	0.86437	0.78794	0.87217	0.65692	0.73353	0.73984	0.65692	0.72574	0.455	0.73353	0.74059	0.80355	0.86634	0.87217	0.73423	0.88142	0.79627	0.88142	0.60069	0.67745	0.5874	0.39138	0.53089	0.60753	0.39138	0.5874	0.31996	0.60753	1.0209	0.67062	0.66417	0.95256	0.594	0.6707	0.6707	0.67745	0.38884	0.73423	0.60699	0.53004	0.67831	0.6707	0.6707	0.94684	1.0154	0.66419	0.39638	0.6707	0.73423	0.66419	0.73423	0.60008	0.74875	0.45309	0.60069	0.54309	0.46761	0.54426	0.74059	0.88142	0.66417	0.94986	0.53089	0.6707	0.67745	0.60753	0.67745	0.60753	0.67745	0.74719	0.67062	0.79627	0.80977	0.60069	0.73984	1.0328
2.5427	1.2826	0.86437	0.80219	1.0741	0.87217	0.67731	0.65692	0.71967	0.73353	0.80355	0.66338	0.594	0.594	0.86634	0.80355	0.73353	0.594	0.80977	0.46207	0.52391	0.92894	0.594	0.60069	0.39884	0.79627	0.86437	0.5874	0.79627	0.79758	0.81847	0.65692	0.79758	0.46207	0.67062	0.455	0.59387	0.5874	0.46023	0.6707	0.74875	0.53004	0.51716	1.1668	0.88346	0.87561	0.46023	0.52391	0.60699	0.66417	0.73423	0.53004	0.32441	0.6707	0.79186	0.87561	0.39638	0.72812	0.66419	0.53004	0.73423	0.66417	0.46023	0.53703	0.74059	0.46023	0.80355	0.67062	0.46761	0.80355	0.88142	0.73353	0.80355	0.33544	0.74059	0.87217	0.53089	0.67731	0.88748	1.0886
2.6571	1.1458	0.86437	0.78794	0.87217	0.86437	0.67062	0.66338	0.58799	0.52512	0.73353	0.72574	0.85883	0.594	0.60069	0.86634	0.86634	0.5874	0.66417	0.53089	0.44816	0.86634	0.58799	0.53089	1.0741	0.39138	0.53089	0.52512	0.65692	0.67731	0.455	0.94419	0.46023	0.5874	0.594	0.80355	0.99137	0.594	0.52391	0.74059	0.60008	0.73423	0.73423	0.73423	0.39638	0.73423	0.60753	0.73423	0.86075	0.95256	0.66419	0.51716	0.79186	1.1405	0.53703	0.94684	0.73423	0.6707	0.86634	0.6707	0.60753	0.455	0.39884	0.73353	0.67062	0.73984	0.87217	0.74059	0.87217	0.95256	0.87217	0.58799	1.0268	0.67062	0.67062	0.53089	0.73353	0.94986	0.89378	1.2778
2.6579	1.2021	1.2778	0.72574	0.80219	0.99645	0.80219	0.80219	0.9344	0.86634	0.86437	0.71967	0.51843	0.73984	0.86634	0.73353	0.73353	1.0068	0.86634	0.67062	0.594	0.85883	0.39138	0.52512	0.51843	1.0731	0.594	0.80219	0.67731	0.67062	0.80219	0.67062	0.66417	0.24426	0.88142	0.86634	0.92894	0.38415	0.74059	0.94419	0.45309	0.38884	0.80977	0.60699	0.45309	0.80355	1.0154	0.25559	0.87561	0.80355	0.6707	0.94419	0.66419	0.58104	0.66419	0.32441	0.79758	0.74059	0.79758	0.45309	0.74719	0.80355	0.80977	0.81847	0.53089	0.67731	0.31583	0.94986	0.80977	0.66417	1.0209	0.73353	0.86075	0.594	0.74059	0.72574	0.5874	0.80355	0.80977	1.0886
3.3518	1.222	0.87016	0.66338	0.72574	0.78224	0.80977	1.0832	0.9344	0.71967	0.31161	0.65071	0.66338	0.79627	1.0154	0.80219	0.80355	0.37945	0.92894	1.0832	0.455	0.74059	0.86075	0.80219	0.80977	0.52512	0.60069	0.65692	0.92638	0.73423	0.73353	0.73984	0.73984	0.86634	0.74059	0.86634	1.0209	0.92894	0.74875	0.74059	0.74844	0.94419	0.60699	1.0741	0.73423	0.46761	0.66417	0.60069	0.73353	0.67745	0.88956	0.6707	0.74059	0.66417	0.80355	0.79758	0.73423	0.72812	0.60069	0.80355	0.60753	0.94419	0.73984	0.46207	0.53089	0.67731	0.73353	0.80355	0.46207	0.594	0.73984	0.46207	0.53089	0.594	0.73984	0.46207	0.45679	1.078	0.75403	1.0886
2.6779	1.0793	0.80219	0.58799	0.594	0.93179	0.66338	0.65692	0.65692	0.52512	0.65692	0.80977	1.0741	0.79758	0.52512	0.80219	1.078	0.72574	0.99137	0.594	1.0741	0.9344	0.72574	0.594	0.66338	0.67731	0.71967	0.79627	0.80355	0.58799	0.60753	0.73353	0.80977	0.52391	0.79627	0.86634	0.88142	0.86634	0.80219	0.594	0.73423	1.0154	0.92894	0.95852	0.79059	0.88142	1.0832	0.80355	0.45309	1.078	0.93876	0.79758	0.73423	0.594	0.80355	0.5874	0.79758	0.73423	0.52391	0.66419	0.67062	0.73984	0.65692	0.53089	0.67062	0.72747	0.594	0.60753	0.67731	1.0886	0.594	0.53089	0.65692	0.86634	0.80836	0.73353	0.87217	0.66338	0.87217	1.1503
3.5667	1.0583	1.0793	0.65069	0.80836	0.58799	0.59454	0.72574	0.80219	0.73353	0.99645	0.9344	0.52512	0.87217	0.65069	0.79627	0.65692	0.79059	0.73353	0.594	0.87217	0.73984	0.71967	0.80355	0.46761	0.80219	0.80219	0.73353	0.46207	0.73353	0.65692	0.65692	0.73353	0.594	0.88142	0.52512	0.79627	0.80977	0.92894	0.87217	1.0154	0.79758	0.5874	1.1453	0.66417	0.79758	0.39138	0.92894	0.53089	0.60753	0.72747	0.46023	0.86634	0.594	0.79758	0.74059	0.73423	0.66417	0.80355	0.79758	0.80355	0.67062	0.87217	0.74059	1.0832	0.87217	0.87217	1.3584	0.60753	0.52391	0.455	0.66338	0.9344	0.80977	0.53089	0.594	0.80219	0.53204	1.0121	1.2342
2.9339	1.2168	1.0073	0.99645	0.86437	0.72574	0.80219	1.1503	0.9344	0.72574	0.86437	0.86634	0.72574	0.65692	0.594	1.0018	0.65069	0.99137	0.9344	0.5874	0.73353	0.78224	0.53089	0.85883	0.455	0.73353	0.79627	0.594	0.80219	1.1453	0.46207	0.32343	0.52512	0.73984	0.94986	0.455	0.71967	0.46938	0.52391	0.92894	0.67062	0.79758	0.99645	0.52391	1.0017	0.80355	0.594	0.66417	0.72747	0.80355	0.74719	0.46023	0.80355	0.92894	0.73353	0.73423	0.79758	0.80355	0.67062	0.46023	0.87217	0.87217	0.80355	1.0741	0.80219	0.94986	0.65692	0.52391	0.52512	0.594	0.73984	0.73353	0.594	0.73984	0.67062	0.73206	0.594	0.73984	1.2906	1.2277
4.726	1.2243	0.80219	0.99645	0.73984	0.58162	0.65069	0.72574	0.80219	0.86437	0.58799	0.66417	0.53204	0.455	0.80355	0.65692	0.79627	0.65692	0.594	0.72574	0.80219	0.5874	0.31583	0.73984	0.78224	0.86634	0.87217	0.71967	0.80219	0.86634	0.58799	0.79627	0.71967	0.73353	0.9344	0.92638	0.52391	0.85883	0.99645	0.79627	1.0154	0.51716	0.80977	0.86634	0.80977	0.74059	0.5874	0.65692	0.9344	0.95852	1.1453	0.88748	0.80355	0.5874	0.51716	0.594	1.0154	0.86634	0.73353	0.87561	0.52512	0.86634	0.87217	0.80219	1.2072	0.80219	0.66338	0.80219	1.0209	0.73353	0.51843	0.80977	0.58799	0.594	0.80977	0.67062	0.73984	0.87016	0.87824	1.0234
3.2335	0.94009	1.1294	0.65692	0.80219	0.79388	0.98821	0.94009	0.72574	0.65692	0.65685	0.86437	0.58799	0.58799	0.9344	0.71967	0.65692	0.65692	0.73353	0.51843	0.80219	0.9212	0.67062	0.52512	0.31891	0.73984	0.52512	0.59454	0.66456	0.9432	0.51843	0.594	0.67062	0.80219	0.80219	0.73984	1.2119	0.73984	0.5874	0.79627	0.51843	0.79627	0.74059	0.94986	0.455	0.65071	0.87217	0.87217	0.80977	0.67745	0.86075	0.73423	0.52512	0.86075	0.95256	0.60753	0.73353	1.0832	1.078	0.81227	0.94009	0.66417	0.80977	1.0832	0.86634	0.73353	0.52512	0.39138	0.72574	0.73353	0.80977	0.73353	0.73353	0.72574	1.0018	1.1314	0.87824	0.80836	0.94419	1.4979
2.8771	0.86437	1.0545	0.72574	0.65069	0.72574	1.0018	0.79627	0.73353	1.0583	0.65685	0.65069	0.65069	0.73353	0.98821	0.98821	0.594	0.99325	0.71967	0.92894	0.72574	0.73984	0.594	0.80219	1.2119	0.9344	0.71967	0.92894	0.58169	0.44973	0.73984	0.73984	0.65071	0.9344	0.9212	0.73984	0.80219	1.1503	0.73353	0.60084	0.80355	0.92894	0.53089	0.79758	0.73353	0.86634	0.73353	0.74059	0.455	0.67731	0.86634	0.58799	0.92894	0.86634	0.81847	0.86634	0.86634	0.80355	1.2027	0.79627	0.80219	0.72574	0.87824	0.67062	0.99645	0.60084	0.71967	0.79627	0.80219	0.87217	0.73353	0.66338	0.65685	0.65692	0.80219	0.66338	0.65692	0.80219	0.9344	1.4242
2.9977	1.55	0.78794	0.9118	0.719	0.58799	0.78794	1.0018	0.99645	0.93179	0.72574	0.86437	0.594	0.72574	1.0741	0.71967	0.52512	0.87016	0.79627	0.87217	0.65069	0.9344	0.86437	1.2072	0.79627	0.52512	0.80219	0.5874	0.92894	0.58799	0.86437	0.60084	0.94009	1.0583	0.52512	0.86437	0.73353	0.94009	0.72574	0.92638	0.92894	0.99137	0.86634	0.80977	1.1405	0.94419	0.52512	0.73353	0.80836	0.73353	0.87217	0.73984	0.73423	0.86634	0.65071	0.88142	0.67062	0.455	0.80355	0.87217	0.92638	0.65692	0.86437	0.51929	0.80219	0.87016	0.73984	0.80219	0.80836	0.73984	0.80977	0.67062	0.80836	0.9344	0.65692	0.86437	0.87016	0.99645	0.66338	1.2826
3.0188	0.93179	0.99645	0.78224	0.99645	0.73206	0.99645	0.9344	0.80836	0.719	0.65692	0.46938	0.52512	0.79627	0.86437	0.92638	0.9344	0.85883	0.73353	0.9344	0.65692	0.86437	0.78794	0.9344	0.53204	0.66338	0.93179	0.719	1.136	1.0121	0.86634	0.80219	0.73984	0.73353	0.99645	0.79627	0.38667	0.92638	0.9344	0.58799	0.79627	0.65071	0.80355	0.86634	0.37945	0.67062	0.86634	0.85883	0.72747	1.0832	0.79059	0.80219	0.87217	0.86634	0.65692	0.86634	0.80977	0.73353	0.65692	0.86634	0.87217	0.51843	0.9344	0.65692	0.46207	1.1453	0.52512	0.65692	1.2072	0.455	0.53204	1.1503	0.73353	0.80219	0.80219	0.72574	0.72574	0.80219	0.9344	1.2277
2.907	1.2168	0.93179	0.92638	0.51843	0.99645	0.78794	0.78224	0.719	1.1246	0.53204	1.0583	0.78794	0.80219	0.99645	0.9344	0.67095	0.99645	0.80219	1.0583	1.0018	0.52512	0.72574	0.594	0.92638	0.9344	0.65692	0.92894	0.72747	0.80219	0.80836	0.73353	1.2072	0.92638	1.2072	0.87824	0.58169	0.85883	0.73353	0.79627	1.2119	0.92894	0.73353	0.73984	1.1453	0.73353	0.86634	0.92894	0.73353	0.71967	0.66417	1.0121	0.79627	0.86437	0.60753	0.80355	1.2072	1.1405	1.0154	0.73353	0.87217	0.73984	0.72574	0.79388	0.87217	0.93179	0.65692	0.87217	0.72574	0.80219	0.80219	0.66338	0.72574	0.99645	0.80836	0.93179	0.80836	1.4285	0.80219	1.0847
2.7995	1.2732	0.99325	0.93179	0.92638	0.78794	0.917	0.66326	0.72574	0.719	0.65692	0.72574	0.78096	0.78794	0.71967	0.94009	0.85883	0.92894	0.78224	1.3344	0.65069	0.86437	0.58169	0.79627	1.2072	0.87824	0.79627	0.66338	0.78794	1.2021	0.594	0.80219	0.86437	0.80355	0.92638	1.1453	0.78794	0.99645	0.80219	0.46938	0.87016	1.0692	1.0832	0.9344	0.65071	1.1453	0.86634	1.3584	0.79059	0.92894	1.0536	0.65069	0.87217	0.9344	0.79758	0.92638	0.92894	0.92894	0.65071	1.0068	0.58799	0.594	1.0018	0.78224	0.66338	0.86437	0.99645	0.60084	0.86437	1.0741	0.80836	0.87217	0.719	0.87824	0.9344	0.65069	0.72574	0.9344	0.9344	1.222
2.5992	1.2021	1.0633	0.72574	1.0583	0.99325	0.78096	0.99645	0.9344	0.86437	0.93179	0.65069	0.92638	0.99137	0.87824	0.86437	0.65692	0.93179	0.80219	0.71967	0.80219	0.719	0.79627	1.0741	0.99645	1.0633	1.2119	0.594	0.72574	1.1453	0.78794	0.9212	0.65692	0.92894	0.86634	0.9344	0.66338	0.93179	0.71967	1.0068	0.94986	0.87217	0.9344	0.86437	0.99645	0.9344	0.65692	0.9344	0.65071	1.2689	0.5874	1.1453	0.5874	0.74059	0.52512	0.92894	0.86437	0.99137	0.86634	1.0741	0.99325	0.65692	0.59454	0.51929	0.78794	1.0018	0.86437	1.0018	0.94009	0.65069	0.72574	0.80219	0.99645	0.80836	0.65685	0.87824	0.72574	1.0633	1.2342	1.3004
2.7425	1.3992	1.2021	1.1408	0.58162	0.58162	0.80219	0.93179	0.719	0.99325	0.66338	0.93179	0.93179	1.1246	0.92638	0.92638	0.87016	0.99645	0.58169	1.2119	0.98821	1.1408	0.93179	0.9344	0.92638	0.92638	0.79627	0.98821	0.78224	1.0793	0.72574	0.79627	0.93179	0.52512	0.85883	0.86437	0.93179	1.0583	0.71967	0.98821	1.0741	1.0583	1.0583	0.65692	0.92894	0.87217	0.87217	0.67062	0.79627	0.594	0.86634	0.87217	0.85352	0.79059	0.9344	0.80219	0.80219	0.87217	0.92894	0.80219	0.79388	1.0741	0.86437	0.86437	0.65685	0.9344	1.2675	0.72574	0.59454	0.87217	0.80836	1.136	0.65069	1.0018	0.59454	0.94009	0.9344	1.2168	1.1458	1.2067
2.5992	1.0595	0.85552	0.86437	0.7132	0.99645	0.719	1.0583	0.86437	0.93179	0.99645	0.92638	0.72574	0.65685	0.72574	0.78794	0.93179	0.93179	0.98821	0.98821	0.94009	0.78794	0.86437	0.58799	0.80219	0.78224	1.0583	0.93179	0.92638	0.80836	0.59454	0.93179	0.78224	0.92638	0.87217	0.72574	0.92894	0.92894	0.78224	0.87217	0.79627	0.73984	0.9344	0.80977	1.2072	1.2072	0.9344	0.86634	0.99645	0.86634	0.92894	0.72574	0.65692	0.99645	0.92894	0.79627	0.86634	0.85883	0.99645	0.99645	0.86437	1.3519	0.87217	1.0176	1.2732	1.0583	1.2021	0.86437	0.9344	0.87016	0.87016	1.0018	0.80219	1.0583	0.80219	0.92638	0.86437	1.1408	0.9344	1.3386
2.6571	1.2675	0.78096	1.0595	0.99325	0.72574	1.12	0.85883	1.0633	1.2689	0.86437	0.99325	0.72503	0.92638	0.9344	0.78794	0.72574	0.72574	1.0018	1.3344	0.917	0.79388	0.93179	1.1408	0.99325	0.719	0.58169	0.9344	0.86437	0.87016	1.12	1.0676	0.86437	0.86437	0.79627	0.71967	0.80219	0.80219	0.52512	1.0633	0.99645	1.0073	0.86437	0.71967	0.85883	1.0176	1.0018	1.0121	1.0583	0.9344	0.78224	1.0741	0.87217	0.79627	0.85883	0.9344	0.92638	0.99137	0.71967	1.0741	0.58799	0.78224	0.98821	1.2732	0.93744	0.92638	1.0018	0.52512	0.9344	1.2067	1.1458	0.93179	1.0633	0.86437	1.0018	0.93744	1.0018	0.86132	1.2067	1.1458
2.7725	1.1458	1.3992	0.719	1.0685	0.78096	0.99325	0.99325	0.92638	1.1294	0.78224	0.78662	0.79388	1.0018	0.51929	1.0018	0.93179	1.0741	0.78794	0.52512	1.0545	0.65069	0.59454	0.92638	0.99325	0.84995	0.65069	0.98821	0.7132	0.79538	0.92638	0.72574	0.92638	0.85883	1.0018	0.92638	0.85883	0.9212	0.65692	0.65692	1.2242	0.93179	1.0741	0.65071	0.79627	1.0121	1.0633	0.86437	0.92638	0.51843	0.99645	0.78794	1.0121	0.99137	1.1408	0.80219	0.87217	1.0583	0.80219	0.65069	0.80219	1.1858	1.1458	0.86437	0.78794	0.93179	0.73984	1.2675	0.78794	0.65069	0.94009	1.0633	1.0018	0.93179	0.73984	1.0595	1.0633	1.0018	0.93744	0.93744
2.8298	1.6017	0.93179	1.2508	1.3323	0.719	1.1246	1.0545	0.78662	0.93744	0.99325	0.99325	0.98821	1.0018	0.80219	0.86437	0.99325	0.87016	0.9344	0.84463	0.93179	1.2021	0.64377	0.917	0.78794	0.80219	0.80836	0.86437	1.136	0.58162	1.0633	0.92638	0.93179	0.93179	1.0018	0.98821	1.0741	0.58799	0.86437	1.1246	0.99645	1.0583	0.99645	1.2072	1.0536	0.99645	1.2072	0.98821	0.86634	1.2732	0.52512	0.92638	1.0741	0.71967	1.0583	0.80219	0.86437	1.1408	0.9344	1.0741	0.98337	0.99325	0.79627	1.0018	0.86437	0.93179	1.0545	0.79388	0.59454	0.94009	0.93179	0.80219	1.0633	0.79627	0.94009	0.78662	0.79388	0.72574	0.99854	1.4778
2.7148	1.4033	1.0545	0.98821	0.65685	1.0685	0.58162	1.0545	0.84995	0.64476	0.92638	1.0545	1.0545	0.85552	0.84995	1.0536	0.9344	0.917	0.92638	0.92638	0.719	0.92638	0.99325	1.0633	1.12	0.86437	1.2021	1.0545	1.3918	1.2778	0.65692	0.86437	0.78794	1.0583	0.72574	0.93179	0.93179	1.0793	0.80219	1.0793	1.0793	1.0583	1.0741	1.1453	0.92638	0.86634	1.2732	1.0583	1.0018	1.136	1.2072	1.136	0.99645	1.136	1.12	0.86634	1.0583	0.92638	1.0583	0.80219	1.0545	0.66326	0.99645	0.99325	1.0633	0.65685	0.65685	0.87016	0.66326	1.0018	0.99325	0.93179	0.93744	0.93179	1.0018	0.94009	0.80219	1.1458	1.2675	1.6781
2.9494	1.0685	1.1157	1.2632	0.98337	1.1858	0.90684	1.0545	0.98821	0.917	0.79388	1.1246	1.2632	0.98821	0.93179	1.1408	1.1157	0.78662	0.92638	0.86437	0.719	0.93179	1.0545	0.85552	0.99325	0.65685	0.78794	0.72503	0.93179	0.65685	1.0793	0.99325	0.79388	1.0545	1.0583	0.85552	0.9212	0.79388	0.86437	1.0633	1.2119	1.0793	1.0793	0.9344	0.79627	1.136	0.71967	1.0583	0.99137	0.72574	0.86437	0.9212	1.2732	0.92638	0.99645	1.136	0.78794	1.136	0.86437	0.9344	0.86437	1.2021	1.2021	0.78794	0.99854	0.98337	0.99325	0.92638	0.86437	0.93179	1.2021	0.79388	1.2675	1.0018	1.0685	1.0633	1.0685	0.99325	1.0633	1.2054
2.7725	0.93179	0.94333	0.92243	0.99325	0.85552	0.57589	0.84463	1.1157	0.93179	1.1902	0.72574	0.917	0.78096	0.98821	1.3242	0.84995	0.93179	0.93179	0.9783	1.1246	0.917	0.92638	0.84995	0.58162	0.87016	0.87016	0.84995	0.9118	0.86437	0.86437	0.93179	0.99325	1.1858	1.3344	1.2021	0.66326	0.87016	0.87016	0.72574	1.1976	0.86437	1.1976	0.99645	1.0793	0.9212	1.0741	1.2021	0.86437	0.80219	0.58799	1.0018	1.1503	1.1408	0.85883	0.93179	0.9344	1.0583	1.2732	0.85883	0.65069	1.0545	0.93179	0.79388	0.85358	0.65685	0.78096	0.99854	1.4033	0.65685	1.3281	1.1246	0.85552	1.4033	0.917	1.2067	1.2067	0.87618	0.93744	1.5418
2.8861	1.0633	1.3281	1.1294	0.78662	0.91448	0.84995	1.1408	0.917	0.93179	1.1294	0.85552	1.3242	0.98821	1.1858	0.99325	0.99325	1.0499	0.93179	0.98821	0.84995	0.719	0.78096	0.7132	0.99854	1.12	1.1246	0.84995	0.92638	0.71967	1.0545	0.92638	0.98821	1.0545	0.92638	1.1246	0.99645	1.0499	1.0633	1.1246	0.9344	1.0176	0.99137	0.80219	1.1157	0.92638	0.86437	0.98821	0.98821	0.9344	1.0583	1.0583	0.99325	1.2632	0.92638	0.99645	0.78794	1.2168	1.2689	0.98821	0.93179	0.66989	1.0633	0.66326	0.93744	1.1902	0.79252	0.66326	0.86437	1.1345	1.1202	1.1408	0.917	1.0633	1.1246	1.2021	0.86284	0.78662	1.0018	1.343
2.8296	1.1458	0.93744	1.0595	1.1246	1.1858	0.78662	1.12	1.0545	0.64377	0.917	0.84276	0.93179	0.99325	0.99325	1.1294	0.92243	0.58162	1.3992	1.1858	0.99325	0.99854	0.78794	0.60131	0.78794	0.99325	0.917	0.93179	0.93179	0.85552	0.78096	0.99325	0.87016	0.7132	1.2021	0.99854	1.1902	1.3344	0.99325	1.2067	1.0018	1.1858	1.1246	1.2632	0.917	0.92638	1.12	0.98821	1.0545	1.0583	1.1408	1.2632	1.3386	1.0583	1.2732	0.99325	1.0633	1.1246	1.0583	1.1408	0.93179	0.78662	0.99325	1.1902	0.93179	0.99854	1.0595	1.2067	1.0545	1.0633	0.85552	0.99854	1.0545	0.85552	1.2732	1.3323	0.99854	1.2732	1.1458	1.4597
2.7995	1.4634	1.0633	0.77554	0.99325	1.1246	0.92638	0.78794	0.99325	0.78662	0.84276	1.0685	1.0633	1.3281	1.0545	0.92243	0.78096	0.84276	1.0595	0.84805	0.99325	0.9118	0.93179	1.3242	1.1202	1.0595	1.0018	1.2021	0.79388	0.87016	0.92243	0.99325	1.1202	0.84995	1.1246	0.84805	0.98821	1.0018	0.93179	1.2021	0.99645	0.85883	0.79059	1.0583	0.71967	1.1246	0.99645	1.2168	1.3386	1.0018	1.0741	1.3344	1.2067	1.0583	1.1408	1.0583	1.136	1.2021	1.2021	0.9212	0.99854	0.85552	0.84276	1.0633	1.0847	0.91448	1.1949	1.1294	1.1902	1.0595	1.1294	0.85552	1.2675	0.92243	1.2021	1.1294	1.0685	1.4131	0.93744	1.6645
2.7532	1.6645	1.5234	0.98821	1.1157	1.1294	1.1294	0.99325	1.1902	1.12	1.0545	0.99325	1.6739	0.92243	1.0633	1.0595	0.78662	0.78662	1.0545	0.90931	0.93179	1.0595	1.1202	0.72503	1.1294	0.52042	1.0646	1.2508	0.93179	0.92243	0.917	0.9118	0.79388	0.99325	1.1246	0.92638	1.1246	0.93179	0.99645	1.3281	1.1408	0.86437	1.12	1.0583	1.1246	0.93179	0.9834	1.2675	0.84995	0.98821	1.0633	1.2021	1.1246	0.92638	1.12	1.1902	1.0685	1.3992	0.9212	1.1294	0.917	0.72503	1.1408	1.0595	0.98868	1.2116	0.87016	0.92243	1.1294	1.2067	0.98337	1.0633	0.78096	1.0545	0.99325	0.85358	0.93179	1.4033	0.85552	1.6051
3.025	1.3153	1.1858	1.1157	1.1157	1.1202	1.125	1.1246	1.1157	0.99325	0.78662	0.84995	1.2021	0.84276	0.78096	1.1157	0.917	0.78662	1.0595	0.99854	1.1202	0.85358	1.0545	0.719	1.1202	0.85358	0.78662	0.93179	1.0633	1.3323	1.0595	0.99854	0.99325	0.87016	1.2067	0.66326	1.0633	0.99325	0.719	1.0633	0.99325	1.2592	1.55	1.0633	1.1408	1.1858	1.2632	1.3954	1.0583	0.99645	1.0583	1.0583	0.92638	1.2632	1.1858	1.1246	0.99325	1.2021	1.12	1.136	0.93744	0.92243	1.6105	1.1294	1.1902	0.72503	1.2632	0.72503	0.99854	0.92638	0.90931	0.99854	1.0646	1.0595	1.0685	1.0595	1.0595	0.98337	1.2675	1.3964
3.2431	1.3791	1.3886	1.3281	1.0394	1.1949	1.0595	1.1202	1.0595	1.1949	1.1157	1.0499	1.0545	0.99325	1.1902	1.0394	1.3281	1.1157	0.99325	0.92243	0.84276	1.1202	1.2632	1.0545	1.2508	1.0595	1.0595	0.92638	1.2067	0.84805	1.1157	1.1246	1.1294	1.1858	1.1294	1.3281	0.98337	1.0073	1.2632	0.8377	0.93179	1.1246	1.2067	1.2632	1.3344	1.3305	0.99325	1.2467	1.1294	1.2067	1.0633	1.1858	0.92638	0.93179	1.1157	1.3886	1.2508	1.2675	0.93179	1.12	1.0595	0.917	1.3386	1.1902	1.2067	0.92638	0.99854	0.92243	1.3281	1.1858	0.78096	1.0595	0.917	0.98337	1.1202	0.84805	1.3281	0.99325	1.272	1.6051
2.6143	1.2623	1.1766	1.1808	1.1202	1.0595	0.98337	0.78662	1.1246	1.1808	1.3386	1.1858	1.0545	1.3113	0.99325	1.2632	1.0545	1.2508	1.385	1.1808	1.3153	1.1902	1.2508	0.99854	0.99325	1.0633	0.84276	1.1294	1.1902	1.0595	0.98337	0.99854	0.99325	1.1858	0.85552	1.3281	0.97346	0.719	1.2675	0.99325	0.97346	1.1113	1.4131	1.1815	1.4741	1.1246	1.4778	0.99325	0.9783	1.3992	1.2632	1.1294	0.98821	1.2632	1.1246	1.3344	1.1246	0.93179	1.1246	0.99645	1.125	1.1202	0.85358	0.78662	1.3323	0.99325	1.3281	1.1202	1.1902	1.1294	1.2552	0.85358	0.84805	0.85358	1.3281	1.4634	1.1202	1.125	1.1852	1.4716
2.8298	1.2021	1.1202	1.1157	1.0633	1.0545	1.2508	1.2675	1.2467	1.1246	0.98821	1.0633	0.90931	1.1202	1.2632	0.99325	1.1202	1.3323	1.1902	1.2467	0.85358	1.2508	0.9783	1.1202	1.3153	1.12	0.99325	1.1202	0.917	1.0545	1.3281	1.2675	1.2632	0.84995	1.0633	0.99325	1.385	1.2552	1.1246	1.4597	1.1408	1.2632	0.99645	1.3242	1.3992	0.84995	1.1246	1.2632	1.12	1.0633	1.0633	1.3924	0.92638	1.3992	1.1976	1.3281	1.0583	1.0545	1.12	1.2021	0.98821	1.2675	1.125	1.3964	1.3924	0.99854	1.1949	1.2067	0.78662	1.1902	0.917	1.3323	1.2508	1.272	1.3924	1.1345	0.78662	0.99325	1.1949	1.4076
2.6143	1.4131	1.2508	1.1858	1.2508	0.91448	1.1202	1.0545	1.3964	1.5802	0.84805	1.1902	1.2632	1.1202	1.4634	1.2508	1.0545	0.85358	1.3281	1.4597	1.1202	1.1808	1.2508	1.3281	1.125	0.93744	1.5832	1.0595	0.93179	1.1157	1.2675	1.1902	1.2632	1.3323	1.0633	1.3281	1.1858	1.3886	1.0595	0.99325	1.3344	1.2021	1.4597	1.1246	1.1408	1.0545	1.1246	1.0545	1.3281	1.1246	0.9783	1.1294	1.2675	1.3344	1.2632	0.98821	1.3954	1.2675	1.3344	1.4597	1.1202	1.1949	1.3323	1.3281	1.0595	1.0545	1.0595	1.2508	1.1858	1.2508	0.45852	1.13	1.3323	0.917	1.1858	1.2552	1.1899	1.0646	1.2552	1.456
3.4845	1.527	1.0646	1.3924	1.5154	1.2552	1.1417	1.1202	1.3281	1.4634	1.1858	1.5418	1.3281	1.3281	1.4488	1.1808	1.2508	1.6739	1.4597	1.3886	1.4634	1.1974	1.3886	1.6017	1.527	1.4033	1.6772	1.2067	1.1858	1.8298	1.2116	1.4778	0.85552	1.2675	1.385	1.4778	1.52	1.4597	1.1246	1.5382	1.4597	1.2021	1.1902	1.2675	1.346	1.2021	1.3386	1.4817	1.2067	1.5234	1.3344	1.6708	1.5538	1.2675	1.3242	1.4634	1.4597	1.3954	1.3344	1.3344	1.4817	1.1949	1.3924	1.52	1.2116	1.0533	1.4634	1.3323	1.6088	1.3323	1.7959	1.3386	1.3153	1.4597	1.4674	1.4523	1.2508	1.1899	1.4523	1.7268
2.8298	1.5864	1.6615	1.4674	1.7933	1.3886	1.512	1.5234	1.7367	1.3281	1.6176	1.4634	1.2826	1.3281	1.6645	1.6017	1.7399	1.4634	1.6017	1.7959	1.6772	1.6139	1.4634	1.4634	1.7268	1.6457	1.8691	1.3153	1.4634	1.5355	1.4597	1.6051	1.803	1.816	1.7566	1.5418	1.5355	1.5456	1.7367	1.9511	1.5418	1.4597	1.7442	1.3954	1.6073	1.6017	1.7471	1.6139	1.7367	1.5456	1.8893	1.6772	1.7933	1.7337	1.4817	1.8893	1.3992	1.6772	1.4817	1.6105	1.3964	1.6088	1.8132	1.6017	1.954	1.3281	1.5864	1.3924	1.4674	1.6051	1.8576	1.73	1.512	1.272	1.5154	1.5864	1.4523	1.7399	1.7178	2.0124
